<?xml version='1.0' encoding='utf-8'?>
<gexf version="1.1" xmlns="http://www.gexf.net/1.1draft" xmlns:viz="http://www.gexf.net/1.1draft/viz" xmlns:xsi="http://www.w3.org/2001/XMLSchema-instance" xsi:schemaLocation="http://www.w3.org/2001/XMLSchema-instance">
  <graph defaultedgetype="undirected" mode="static">
    <nodes>
      <node id="Peter Naur" label="Peter Naur" />
      <node id="Harvard Business School" label="Harvard Business School" />
      <node id="Charles" label="Charles" />
      <node id="Bill Rapaport" label="Bill Rapaport" />
      <node id="Hungarian" label="Hungarian" />
      <node id="Peter" label="Peter" />
      <node id="Machinery ACM" label="Machinery ACM" />
      <node id="Computing Sciences Accreditation" label="Computing Sciences Accreditation" />
      <node id="Petri" label="Petri" />
      <node id="Purdue University" label="Purdue University" />
      <node id="Analytical Engine Ada Lovelace" label="Analytical Engine Ada Lovelace" />
      <node id="United States" label="United States" />
      <node id="French" label="French" />
      <node id="Greek" label="Greek" />
      <node id="Italian Dutch" label="Italian Dutch" />
      <node id="Howard Aiken" label="Howard Aiken" />
      <node id="South Korea" label="South Korea" />
      <node id="Leibniz" label="Leibniz" />
      <node id="Graduate School" label="Graduate School" />
      <node id="Similar" label="Similar" />
      <node id="Computer" label="Computer" />
      <node id="UK School Informatics University Edinburgh" label="UK School Informatics University Edinburgh" />
      <node id="Department Datalogy University Copenhagen" label="Department Datalogy University Copenhagen" />
      <node id="Computer Sciences" label="Computer Sciences" />
      <node id="Danish" label="Danish" />
      <node id="IBM" label="IBM" />
      <node id="University Cambridge Computer" label="University Cambridge Computer" />
      <node id="International Business Machines" label="International Business Machines" />
      <node id="Louis Fein" label="Louis Fein" />
      <node id="Great Insights" label="Great Insights" />
      <node id="Informatik German" label="Informatik German" />
      <node id="Cambridge Diploma Computer Science" label="Cambridge Diploma Computer Science" />
      <node id="Stepped Reckoner" label="Stepped Reckoner" />
      <node id="Spanish Portuguese" label="Spanish Portuguese" />
      <node id="Bernoulli" label="Bernoulli" />
      <node id="Babbage" label="Babbage" />
      <node id="Slavic" label="Slavic" />
      <node id="Communications" label="Communications" />
      <node id="Wilhelm" label="Wilhelm" />
      <node id="Israel" label="Israel" />
      <node id="Parallel Random Access Machine" label="Parallel Random Access Machine" />
      <node id="Society IEEE" label="Society IEEE" />
      <node id="Schickard" label="Schickard" />
      <node id="Herman Hollerith" label="Herman Hollerith" />
      <node id="Wegner" label="Wegner" />
      <node id="Analytical Engine" label="Analytical Engine" />
    </nodes>
    <edges>
      <edge id="0" source="Peter Naur" target="Department Datalogy University Copenhagen" weight="1" />
      <edge id="1" source="Peter Naur" target="Danish" weight="1" />
      <edge id="2" source="Harvard Business School" target="Computer Sciences" weight="1" />
      <edge id="3" source="Harvard Business School" target="Communications" weight="1" />
      <edge id="4" source="Harvard Business School" target="Louis Fein" weight="1" />
      <edge id="5" source="Harvard Business School" target="Graduate School" weight="1" />
      <edge id="6" source="Charles" target="Analytical Engine" weight="1" />
      <edge id="7" source="Charles" target="Babbage" weight="1" />
      <edge id="8" source="Bill Rapaport" target="Computer" weight="1" />
      <edge id="9" source="Bill Rapaport" target="Great Insights" weight="1" />
      <edge id="10" source="Hungarian" target="French" weight="1" />
      <edge id="11" source="Hungarian" target="Greek" weight="1" />
      <edge id="12" source="Hungarian" target="Italian Dutch" weight="1" />
      <edge id="13" source="Hungarian" target="Informatik German" weight="1" />
      <edge id="14" source="Hungarian" target="Spanish Portuguese" weight="1" />
      <edge id="15" source="Hungarian" target="Slavic" weight="1" />
      <edge id="16" source="Peter" target="Wegner" weight="1" />
      <edge id="17" source="Machinery ACM" target="Society IEEE" weight="1" />
      <edge id="18" source="Machinery ACM" target="Computing Sciences Accreditation" weight="1" />
      <edge id="19" source="Computing Sciences Accreditation" target="Society IEEE" weight="1" />
      <edge id="20" source="Petri" target="Parallel Random Access Machine" weight="1" />
      <edge id="21" source="Purdue University" target="United States" weight="1" />
      <edge id="22" source="Analytical Engine Ada Lovelace" target="French" weight="1" />
      <edge id="23" source="Analytical Engine Ada Lovelace" target="Bernoulli" weight="1" />
      <edge id="24" source="French" target="Informatik German" weight="1" />
      <edge id="25" source="French" target="Spanish Portuguese" weight="1" />
      <edge id="26" source="French" target="Greek" weight="1" />
      <edge id="27" source="French" target="Italian Dutch" weight="1" />
      <edge id="28" source="French" target="Slavic" weight="1" />
      <edge id="29" source="French" target="Bernoulli" weight="1" />
      <edge id="30" source="Greek" target="Slavic" weight="1" />
      <edge id="31" source="Greek" target="Italian Dutch" weight="1" />
      <edge id="32" source="Greek" target="Informatik German" weight="1" />
      <edge id="33" source="Greek" target="Spanish Portuguese" weight="1" />
      <edge id="34" source="Italian Dutch" target="Informatik German" weight="1" />
      <edge id="35" source="Italian Dutch" target="Spanish Portuguese" weight="1" />
      <edge id="36" source="Italian Dutch" target="Slavic" weight="1" />
      <edge id="37" source="Howard Aiken" target="Analytical Engine" weight="1" />
      <edge id="38" source="Howard Aiken" target="Babbage" weight="1" />
      <edge id="39" source="Howard Aiken" target="IBM" weight="1" />
      <edge id="40" source="South Korea" target="Israel" weight="1" />
      <edge id="41" source="Leibniz" target="Stepped Reckoner" weight="1" />
      <edge id="42" source="Graduate School" target="Louis Fein" weight="1" />
      <edge id="43" source="Graduate School" target="Computer Sciences" weight="1" />
      <edge id="44" source="Graduate School" target="Communications" weight="1" />
      <edge id="45" source="Similar" target="UK School Informatics University Edinburgh" weight="1" />
      <edge id="46" source="Computer" target="Great Insights" weight="1" />
      <edge id="47" source="Computer Sciences" target="Louis Fein" weight="1" />
      <edge id="48" source="Computer Sciences" target="Communications" weight="1" />
      <edge id="49" source="IBM" target="International Business Machines" weight="1" />
      <edge id="50" source="IBM" target="Analytical Engine" weight="1" />
      <edge id="51" source="IBM" target="Babbage" weight="1" />
      <edge id="52" source="IBM" target="Herman Hollerith" weight="1" />
      <edge id="53" source="University Cambridge Computer" target="Cambridge Diploma Computer Science" weight="1" />
      <edge id="54" source="Louis Fein" target="Communications" weight="1" />
      <edge id="55" source="Informatik German" target="Spanish Portuguese" weight="1" />
      <edge id="56" source="Informatik German" target="Slavic" weight="1" />
      <edge id="57" source="Spanish Portuguese" target="Slavic" weight="1" />
      <edge id="58" source="Babbage" target="Analytical Engine" weight="2" />
      <edge id="59" source="Wilhelm" target="Schickard" weight="1" />
    </edges>
  </graph>
</gexf>
